Untitled
…
#package: ggplot: mpg, library(ggplot2)
library(ggplot2)
print(mpg)

# A tibble: 234 × 11
   manufacturer model      displ  year   cyl trans drv     cty   hwy fl    class
   <chr>        <chr>      <dbl> <int> <int> <chr> <chr> <int> <int> <chr> <chr>
 1 audi         a4           1.8  1999     4 auto… f        18    29 p     comp…
 2 audi         a4           1.8  1999     4 manu… f        21    29 p     comp…
 3 audi         a4           2    2008     4 manu… f        20    31 p     comp…
 4 audi         a4           2    2008     4 auto… f        21    30 p     comp…
 5 audi         a4           2.8  1999     6 auto… f        16    26 p     comp…
 6 audi         a4           2.8  1999     6 manu… f        18    26 p     comp…
 7 audi         a4           3.1  2008     6 auto… f        18    27 p     comp…
 8 audi         a4 quattro   1.8  1999     4 manu… 4        18    26 p     comp…
 9 audi         a4 quattro   1.8  1999     4 auto… 4        16    25 p     comp…
10 audi         a4 quattro   2    2008     4 manu… 4        20    28 p     comp…
# ℹ 224 more rows
…
class(mpg) #tells us its a tibble data.frame

[1] "tbl_df"     "tbl"        "data.frame"

colnames(mpg) #list of the column names

 [1] "manufacturer" "model"        "displ"        "year"         "cyl"         
 [6] "trans"        "drv"          "cty"          "hwy"          "fl"          
[11] "class"       

##Subsetting Columns Using select() function

select(mpg, model, year)

# A tibble: 234 × 2
   model       year
   <chr>      <int>
 1 a4          1999
 2 a4          1999
 3 a4          2008
 4 a4          2008
 5 a4          1999
 6 a4          1999
 7 a4          2008
 8 a4 quattro  1999
 9 a4 quattro  1999
10 a4 quattro  2008
# ℹ 224 more rows

select(mpg, starts_with("c")) #using this to select the column names that start with c

# A tibble: 234 × 3
     cyl   cty class  
   <int> <int> <chr>  
 1     4    18 compact
 2     4    21 compact
 3     4    20 compact
 4     4    21 compact
 5     6    16 compact
 6     6    18 compact
 7     6    18 compact
 8     4    18 compact
 9     4    16 compact
10     4    20 compact
# ℹ 224 more rows

select(mpg, ends_with("l"))

# A tibble: 234 × 4
   model      displ   cyl fl   
   <chr>      <dbl> <int> <chr>
 1 a4           1.8     4 p    
 2 a4           1.8     4 p    
 3 a4           2       4 p    
 4 a4           2       4 p    
 5 a4           2.8     6 p    
 6 a4           2.8     6 p    
 7 a4           3.1     6 p    
 8 a4 quattro   1.8     4 p    
 9 a4 quattro   1.8     4 p    
10 a4 quattro   2       4 p    
# ℹ 224 more rows

select(mpg, contains("e"))

# A tibble: 234 × 3
   manufacturer model       year
   <chr>        <chr>      <int>
 1 audi         a4          1999
 2 audi         a4          1999
 3 audi         a4          2008
 4 audi         a4          2008
 5 audi         a4          1999
 6 audi         a4          1999
 7 audi         a4          2008
 8 audi         a4 quattro  1999
 9 audi         a4 quattro  1999
10 audi         a4 quattro  2008
# ℹ 224 more rows

##Subsetting rows qith filters

filter(mpg,year==2008)

# A tibble: 117 × 11
   manufacturer model      displ  year   cyl trans drv     cty   hwy fl    class
   <chr>        <chr>      <dbl> <int> <int> <chr> <chr> <int> <int> <chr> <chr>
 1 audi         a4           2    2008     4 manu… f        20    31 p     comp…
 2 audi         a4           2    2008     4 auto… f        21    30 p     comp…
 3 audi         a4           3.1  2008     6 auto… f        18    27 p     comp…
 4 audi         a4 quattro   2    2008     4 manu… 4        20    28 p     comp…
 5 audi         a4 quattro   2    2008     4 auto… 4        19    27 p     comp…
 6 audi         a4 quattro   3.1  2008     6 auto… 4        17    25 p     comp…
 7 audi         a4 quattro   3.1  2008     6 manu… 4        15    25 p     comp…
 8 audi         a6 quattro   3.1  2008     6 auto… 4        17    25 p     mids…
 9 audi         a6 quattro   4.2  2008     8 auto… 4        16    23 p     mids…
10 chevrolet    c1500 sub…   5.3  2008     8 auto… r        14    20 r     suv  
# ℹ 107 more rows

filter(mpg, (year==2008 & cyl>=6 | model == "a4"))

# A tibble: 83 × 11
   manufacturer model      displ  year   cyl trans drv     cty   hwy fl    class
   <chr>        <chr>      <dbl> <int> <int> <chr> <chr> <int> <int> <chr> <chr>
 1 audi         a4           1.8  1999     4 auto… f        18    29 p     comp…
 2 audi         a4           1.8  1999     4 manu… f        21    29 p     comp…
 3 audi         a4           2    2008     4 manu… f        20    31 p     comp…
 4 audi         a4           2    2008     4 auto… f        21    30 p     comp…
 5 audi         a4           2.8  1999     6 auto… f        16    26 p     comp…
 6 audi         a4           2.8  1999     6 manu… f        18    26 p     comp…
 7 audi         a4           3.1  2008     6 auto… f        18    27 p     comp…
 8 audi         a4 quattro   3.1  2008     6 auto… 4        17    25 p     comp…
 9 audi         a4 quattro   3.1  2008     6 manu… 4        15    25 p     comp…
10 audi         a6 quattro   3.1  2008     6 auto… 4        17    25 p     mids…
# ℹ 73 more rows
…
Rows: 93 Columns: 981
── Column specification ────────────────────────────────────────────────────────
Delimiter: ","
chr   (34): gvkey, indfmt, consol, popsrc, datafmt, tic, cusip, conm, acctch...
dbl  (436): fyear, ajex, ajp, currtr, fyr, ismod, ltcm, pddur, scf, src, upd...
lgl  (506): adrr, bspr, curuscn, ogm, stalt, udpl, acco, accrt, acoxar, acql...
date   (5): datadate, apdedate, fdate, pdate, ipodate

ℹ Use `spec()` to retrieve the full column specification for this data.
ℹ Specify the column types or set `show_col_types = FALSE` to quiet this message.

select(dt, 1:7)

# A tibble: 93 × 7
   gvkey  datadate   fyear indfmt consol popsrc datafmt
   <chr>  <date>     <dbl> <chr>  <chr>  <chr>  <chr>  
 1 001690 2010-09-30  2010 INDL   C      D      STD    
 2 001690 2011-09-30  2011 INDL   C      D      STD    
 3 001690 2012-09-30  2012 INDL   C      D      STD    
 4 001690 2013-09-30  2013 INDL   C      D      STD    
 5 001690 2014-09-30  2014 INDL   C      D      STD    
 6 001690 2015-09-30  2015 INDL   C      D      STD    
 7 001690 2016-09-30  2016 INDL   C      D      STD    
 8 001690 2017-09-30  2017 INDL   C      D      STD    
 9 001690 2018-09-30  2018 INDL   C      D      STD    
10 001690 2019-09-30  2019 INDL   C      D      STD    
# ℹ 83 more rows
