Data wrangling with tidyverse
…
Select columns

Use select() function from dplyr package to select columns

In the following example, we will select a handful of columns and then save the resulting dataframe into dt1

dt1 = dplyr::select(.data = dt, conm, fyear, sale)

Print dt1

dt1

# A tibble: 93 × 3
   conm      fyear   sale
   <chr>     <dbl>  <dbl>
 1 APPLE INC  2010  65225
 2 APPLE INC  2011 108249
 3 APPLE INC  2012 156508
 4 APPLE INC  2013 170910
 5 APPLE INC  2014 182795
 6 APPLE INC  2015 233715
 7 APPLE INC  2016 215091
 8 APPLE INC  2017 229234
 9 APPLE INC  2018 265359
10 APPLE INC  2019 260174
# ℹ 83 more rows

Creating a new variable

mutate() function from dplyr allows you to create new variables

The variable sale is in million USD. Let’s create a new variable sale_bil which stores sales in billion USD.

mutate(dt1, sale_bil = sale / 1000)

# A tibble: 93 × 4
   conm      fyear   sale sale_bil
   <chr>     <dbl>  <dbl>    <dbl>
 1 APPLE INC  2010  65225     65.2
 2 APPLE INC  2011 108249    108. 
 3 APPLE INC  2012 156508    157. 
 4 APPLE INC  2013 170910    171. 
 5 APPLE INC  2014 182795    183. 
 6 APPLE INC  2015 233715    234. 
 7 APPLE INC  2016 215091    215. 
 8 APPLE INC  2017 229234    229. 
 9 APPLE INC  2018 265359    265. 
10 APPLE INC  2019 260174    260. 
# ℹ 83 more rows

Create multiple variables

mutate(dt1,
       sale_bil = sale / 1000,
       sale_sq = round(sale_bil^2, 2), # Create square of sales and round it to 2 decimals
       log_sale = log(sale))

# A tibble: 93 × 6
   conm      fyear   sale sale_bil sale_sq log_sale
   <chr>     <dbl>  <dbl>    <dbl>   <dbl>    <dbl>
 1 APPLE INC  2010  65225     65.2   4254.     11.1
 2 APPLE INC  2011 108249    108.   11718.     11.6
 3 APPLE INC  2012 156508    157.   24495.     12.0
 4 APPLE INC  2013 170910    171.   29210.     12.0
 5 APPLE INC  2014 182795    183.   33414.     12.1
 6 APPLE INC  2015 233715    234.   54623.     12.4
 7 APPLE INC  2016 215091    215.   46264.     12.3
 8 APPLE INC  2017 229234    229.   52548.     12.3
 9 APPLE INC  2018 265359    265.   70415.     12.5
10 APPLE INC  2019 260174    260.   67691.     12.5
# ℹ 83 more rows
…
summarize(dt,
          sale_mean = mean(sale),
          at_mean = mean(at),
          oibdp_mean = mean(oibdp),
          xad_mean = mean(xad))

# A tibble: 1 × 4
  sale_mean at_mean oibdp_mean xad_mean
      <dbl>   <dbl>      <dbl>    <dbl>
1   103392. 138297.     28792.       NA

select(dt, xad)

# A tibble: 93 × 1
     xad
   <dbl>
 1   691
 2   933
 3  1000
 4  1100
 5  1200
 6  1800
 7    NA
 8    NA
 9    NA
10    NA
# ℹ 83 more rows
…
dt2 = inner_join(dt1, dt1_summary, by = "fyear")

dt2

# A tibble: 93 × 4
   conm      fyear   sale sale_mean
   <chr>     <dbl>  <dbl>     <dbl>
 1 APPLE INC  2010  65225    28124.
 2 APPLE INC  2011 108249    38870.
 3 APPLE INC  2012 156508    50183.
 4 APPLE INC  2013 170910    56722.
 5 APPLE INC  2014 182795    63512.
 6 APPLE INC  2015 233715    76611.
 7 APPLE INC  2016 215091    81174.
 8 APPLE INC  2017 229234    95719.
 9 APPLE INC  2018 265359   119206.
10 APPLE INC  2019 260174   133513.
# ℹ 83 more rows

dt1 %>% 
  group_by(fyear) %>% 
  mutate(sale_mean = mean(sale),
         sale_ratio = scales::percent(sale / sale_mean, accuracy = 0.01),
         sale = scales::dollar(sale),
         sale_mean = scales::dollar(sale_mean))

# A tibble: 93 × 5
# Groups:   fyear [15]
   conm      fyear sale       sale_mean  sale_ratio
   <chr>     <dbl> <chr>      <chr>      <chr>     
 1 APPLE INC  2010 $65,225.00 $28,124.01 231.92%   
 2 APPLE INC  2011 $108,249   $38,869.60 278.49%   
 3 APPLE INC  2012 $156,508   $50,183.06 311.87%   
 4 APPLE INC  2013 $170,910   $56,721.67 301.31%   
 5 APPLE INC  2014 $182,795   $63,511.55 287.81%   
 6 APPLE INC  2015 $233,715   $76,610.58 305.07%   
 7 APPLE INC  2016 $215,091   $81,174.02 264.98%   
 8 APPLE INC  2017 $229,234   $95,718.68 239.49%   
 9 APPLE INC  2018 $265,359   $119,206   222.61%   
10 APPLE INC  2019 $260,174   $133,513   194.87%   
# ℹ 83 more rows
