Basic Plots
…
We will continue to use mpg dataset

For data exploration, we should understand the distribution of various variables in the data.

Univariate plots

Univariate plots involve only one variable. They typically show frequency distributions of variables.

Histogram

Histograms show the frequency distribution of a continuous variable.

count(mpg, hwy)

# A tibble: 27 × 2
     hwy     n
   <int> <int>
 1    12     5
 2    14     2
 3    15    10
 4    16     7
 5    17    31
 6    18    10
 7    19    13
 8    20    11
 9    21     2
10    22     7
# ℹ 17 more rows
…
